Lecture 7: Mapping and nested data frames — DSCI 523 Programming for Data Manipulation
…
by_country <- gapminder %>%
    group_by(continent, country) %>%
    nest() %>% 
    mutate(mean_life_exp = map_dbl(data, ~mean(.$lifeExp)), 
    life_exp_ci = map(data, ~gap_lifeExp_ci(., "mean")))
print(by_country)

# A tibble: 142 × 5
# Groups:   continent, country [142]
   country     continent data              mean_life_exp life_exp_ci     
   <fct>       <fct>     <list>                    <dbl> <list>          
 1 Afghanistan Asia      <tibble [12 × 4]>          37.5 <tibble [1 × 2]>
 2 Albania     Europe    <tibble [12 × 4]>          68.4 <tibble [1 × 2]>
 3 Algeria     Africa    <tibble [12 × 4]>          59.0 <tibble [1 × 2]>
 4 Angola      Africa    <tibble [12 × 4]>          37.9 <tibble [1 × 2]>
 5 Argentina   Americas  <tibble [12 × 4]>          69.1 <tibble [1 × 2]>
 6 Australia   Oceania   <tibble [12 × 4]>          74.7 <tibble [1 × 2]>
 7 Austria     Europe    <tibble [12 × 4]>          73.1 <tibble [1 × 2]>
 8 Bahrain     Asia      <tibble [12 × 4]>          65.6 <tibble [1 × 2]>
 9 Bangladesh  Asia      <tibble [12 × 4]>          49.8 <tibble [1 × 2]>
10 Belgium     Europe    <tibble [12 × 4]>          73.6 <tibble [1 × 2]>
# ℹ 132 more rows
This is called a nested data frame. A data frame which contains other data frames. This data structure is extremely useful when fitting many models and allows you to keep the data, the model meta data, and the model and its results all associated together as a single row in a data frame.

Let’s unpack this data structure a bit more and learn how to create, manipulate them.

List-columns#

To create a nested data frame we start with a grouped data frame, and “nest” it:

# create a nested data frame
by_country <- gapminder %>% 
    group_by(continent, country) %>% 
    nest()
print(by_country)

# A tibble: 142 × 3
# Groups:   continent, country [142]
   country     continent data             
   <fct>       <fct>     <list>           
 1 Afghanistan Asia      <tibble [12 × 4]>
 2 Albania     Europe    <tibble [12 × 4]>
 3 Algeria     Africa    <tibble [12 × 4]>
 4 Angola      Africa    <tibble [12 × 4]>
 5 Argentina   Americas  <tibble [12 × 4]>
 6 Australia   Oceania   <tibble [12 × 4]>
 7 Austria     Europe    <tibble [12 × 4]>
 8 Bahrain     Asia      <tibble [12 × 4]>
 9 Bangladesh  Asia      <tibble [12 × 4]>
10 Belgium     Europe    <tibble [12 × 4]>
# ℹ 132 more rows
…
# create a nested gapminder tibble
by_country <- gapminder %>% 
    group_by(continent, country) %>% 
    nest() 

print(by_country)

# A tibble: 142 × 3
# Groups:   continent, country [142]
   country     continent data             
   <fct>       <fct>     <list>           
 1 Afghanistan Asia      <tibble [12 × 4]>
 2 Albania     Europe    <tibble [12 × 4]>
 3 Algeria     Africa    <tibble [12 × 4]>
 4 Angola      Africa    <tibble [12 × 4]>
 5 Argentina   Americas  <tibble [12 × 4]>
 6 Australia   Oceania   <tibble [12 × 4]>
 7 Austria     Europe    <tibble [12 × 4]>
 8 Bahrain     Asia      <tibble [12 × 4]>
 9 Bangladesh  Asia      <tibble [12 × 4]>
10 Belgium     Europe    <tibble [12 × 4]>
# ℹ 132 more rows

We’d like to apply the mean function to get the mean life expectancy in a column:

by_country <- gapminder %>%
    group_by(continent, country) %>%
    nest() %>% 
    mutate(mean_life_exp = map_dbl(data, ~ mean(.$lifeExp)))  
print(by_country)

# A tibble: 142 × 4
# Groups:   continent, country [142]
   country     continent data              mean_life_exp
   <fct>       <fct>     <list>                    <dbl>
 1 Afghanistan Asia      <tibble [12 × 4]>          37.5
 2 Albania     Europe    <tibble [12 × 4]>          68.4
 3 Algeria     Africa    <tibble [12 × 4]>          59.0
 4 Angola      Africa    <tibble [12 × 4]>          37.9
 5 Argentina   Americas  <tibble [12 × 4]>          69.1
 6 Australia   Oceania   <tibble [12 × 4]>          74.7
 7 Austria     Europe    <tibble [12 × 4]>          73.1
 8 Bahrain     Asia      <tibble [12 × 4]>          65.6
 9 Bangladesh  Asia      <tibble [12 × 4]>          49.8
10 Belgium     Europe    <tibble [12 × 4]>          73.6
# ℹ 132 more rows
…
by_country <- gapminder %>%
    group_by(continent, country) %>%
    nest() %>% 
    mutate(mean_life_exp = map_dbl(data, ~mean(.$lifeExp)), 
    life_exp_ci = map(data, ~gap_lifeExp_ci(., "mean")))
print(by_country)

# A tibble: 142 × 5
# Groups:   continent, country [142]
   country     continent data              mean_life_exp life_exp_ci     
   <fct>       <fct>     <list>                    <dbl> <list>          
 1 Afghanistan Asia      <tibble [12 × 4]>          37.5 <tibble [1 × 2]>
 2 Albania     Europe    <tibble [12 × 4]>          68.4 <tibble [1 × 2]>
 3 Algeria     Africa    <tibble [12 × 4]>          59.0 <tibble [1 × 2]>
 4 Angola      Africa    <tibble [12 × 4]>          37.9 <tibble [1 × 2]>
 5 Argentina   Americas  <tibble [12 × 4]>          69.1 <tibble [1 × 2]>
 6 Australia   Oceania   <tibble [12 × 4]>          74.7 <tibble [1 × 2]>
 7 Austria     Europe    <tibble [12 × 4]>          73.1 <tibble [1 × 2]>
 8 Bahrain     Asia      <tibble [12 × 4]>          65.6 <tibble [1 × 2]>
 9 Bangladesh  Asia      <tibble [12 × 4]>          49.8 <tibble [1 × 2]>
10 Belgium     Europe    <tibble [12 × 4]>          73.6 <tibble [1 × 2]>
# ℹ 132 more rows
…
	34.6179340.0844

Simplifying the list-column back down to a data frame or atomic vector#

After we create some other intermediate list-columns with map, we usually want to get some values back as regular atomic vector columns in our data frame, for visualization, further analysis, or reporting.

We will first demonstrate how to do this using unnest in our example to covert the life_exp_ci list column to two columns, one for the lower bound of the confidence interval, and one for the upper bound of the confidence interval:

# unnest the ci column
by_country %>% 
    unnest(life_exp_ci) %>% 
    print()

# A tibble: 142 × 6
# Groups:   continent, country [142]
   country     continent data              mean_life_exp lower_ci upper_ci
   <fct>       <fct>     <list>                    <dbl>    <dbl>    <dbl>
 1 Afghanistan Asia      <tibble [12 × 4]>          37.5     34.6     40.1
 2 Albania     Europe    <tibble [12 × 4]>          68.4     65.0     71.6
 3 Algeria     Africa    <tibble [12 × 4]>          59.0     53.4     64.6
 4 Angola      Africa    <tibble [12 × 4]>          37.9     35.7     39.8
 5 Argentina   Americas  <tibble [12 × 4]>          69.1     66.9     71.5
 6 Australia   Oceania   <tibble [12 × 4]>          74.7     72.6     77.1
 7 Austria     Europe    <tibble [12 × 4]>          73.1     70.7     75.5
 8 Bahrain     Asia      <tibble [12 × 4]>          65.6     60.9     70.1
 9 Bangladesh  Asia      <tibble [12 × 4]>          49.8     45.1     54.6
10 Belgium     Europe    <tibble [12 × 4]>          73.6     71.5     75.7
# ℹ 132 more rows
…
by_country <- gapminder %>%
    group_by(continent, country) %>%
    nest() %>% 
    mutate(mean_life_exp = map_dbl(data, ~mean(.$lifeExp)), 
    life_exp_ci = map(data, ~gap_lifeExp_ci(., "mean")))
print(by_country)

# A tibble: 142 × 5
# Groups:   continent, country [142]
   country     continent data              mean_life_exp life_exp_ci     
   <fct>       <fct>     <list>                    <dbl> <list>          
 1 Afghanistan Asia      <tibble [12 × 4]>          37.5 <tibble [1 × 2]>
 2 Albania     Europe    <tibble [12 × 4]>          68.4 <tibble [1 × 2]>
 3 Algeria     Africa    <tibble [12 × 4]>          59.0 <tibble [1 × 2]>
 4 Angola      Africa    <tibble [12 × 4]>          37.9 <tibble [1 × 2]>
 5 Argentina   Americas  <tibble [12 × 4]>          69.1 <tibble [1 × 2]>
 6 Australia   Oceania   <tibble [12 × 4]>          74.7 <tibble [1 × 2]>
 7 Austria     Europe    <tibble [12 × 4]>          73.1 <tibble [1 × 2]>
 8 Bahrain     Asia      <tibble [12 × 4]>          65.6 <tibble [1 × 2]>
 9 Bangladesh  Asia      <tibble [12 × 4]>          49.8 <tibble [1 × 2]>
10 Belgium     Europe    <tibble [12 × 4]>          73.6 <tibble [1 × 2]>
# ℹ 132 more rows
…
